<svg xmlns="http://www.w3.org/2000/svg" width="50" height="51" viewBox="0 0 50 51">
    <g fill="none" fill-rule="evenodd">
        <path fill="#000" stroke="#000" stroke-width="2" d="M1 6v44h44.364V6H1z"/>
        <path fill="#007EFF" fill-opacity=".642" stroke="#000" stroke-width="2" d="M4.245 1v44H48.61V1H4.245z"/>
        <g fill-rule="nonzero">
            <path fill="#FFF" d="M34.271 17.883v5.731h-2.004v-3.819H30.28v3.819h-2.004v-1.912c.311-3.277.203-6.165-.324-8.662-.792-3.747-1.15-1.148-1.647-.672-.333.318-.34 3.43-.022 9.334v1.912h-2.01v-5.731h-1.98V25.538h-2.01v-1.924h-1.987v-1.912h-2.01v3.836h2.01v3.819h1.986v3.824h2.01v1.907h11.979V33.18h1.987V17.883h-1.987z"/>
            <path fill="#212121" d="M22.293 17.889h1.987v1.912h-1.987zM38.268 19.795v13.386h-2.01V19.795zM20.282 17.883v3.819h-1.986v1.912h1.986v1.924h2.01v-7.655M16.285 21.702h2.01v-1.907H14.306v5.743h1.98v-1.924zM18.296 25.538h-2.01v3.819h2.01V27.45zM20.282 29.357h-1.986v3.824h1.986V31.27zM34.271 35.088H22.293V33.18h-2.01V37h15.975v-3.819h-1.987zM28.305 20.002V24h2.005V20.002H32.3V24h2.006v-6h-6zM24.305 19v4h2v-4"/>
            <path fill="#212121" d="M36.305 17h-2v2h2v-.997zM26.305 12v8h-2v-8M30.305 12v8h-2v-8M26.305 10h2v2h-2z"/>
            <path fill="#212121" d="M34.305 17h-6v2h6z"/>
        </g>
    </g>
</svg>
